{
  "pins": {
    "DownOnSpot": {
      "type": "Git",
      "repository": {
        "type": "Git",
        "url": "https://github.com/oSumAtrIX/DownOnSpot"
      },
      "branch": "main",
      "revision": "c55c35ca779fbf1bc11a388434abcf93cdfb8993",
      "url": null,
      "hash": "0g5mgv8b6yvkmksnj1garvn85hhfd2g8bg7azi78jcqrvp0j2qjv"
    },
    "alacritty": {
      "type": "Git",
      "repository": {
        "type": "GitHub",
        "owner": "catppuccin",
        "repo": "alacritty"
      },
      "branch": "main",
      "revision": "071d73effddac392d5b9b8cd5b4b527a6cf289f9",
      "url": "https://github.com/catppuccin/alacritty/archive/071d73effddac392d5b9b8cd5b4b527a6cf289f9.tar.gz",
      "hash": "03smi7hgvpf0hjl8pwabxh0id7sy4zxvqh6hjzdr4zv2772ih8hy"
    },
    "base16": {
      "type": "Git",
      "repository": {
        "type": "GitHub",
        "owner": "catppuccin",
        "repo": "base16"
      },
      "branch": "main",
      "revision": "ca74b4070d6ead4213e92da1273fcc1853de7af8",
      "url": "https://github.com/catppuccin/base16/archive/ca74b4070d6ead4213e92da1273fcc1853de7af8.tar.gz",
      "hash": "1h37bjmr2b96l239ckv5iq8cyvpm4bwnqgl21s4k65mikycfr43x"
    },
    "base16rosepine": {
      "type": "Git",
      "repository": {
        "type": "GitHub",
        "owner": "edunfelt",
        "repo": "base16-rose-pine-scheme"
      },
      "branch": "main",
      "revision": "4161952824f4ede6c3eb73ef6b5f3609a76cf69a",
      "url": "https://github.com/edunfelt/base16-rose-pine-scheme/archive/4161952824f4ede6c3eb73ef6b5f3609a76cf69a.tar.gz",
      "hash": "17n45xd8qza3n9gzlpffri6hbil9n0442yx8vfaf4pgpwgmlqvjm"
    },
    "hurl-nvim": {
      "type": "GitRelease",
      "repository": {
        "type": "Git",
        "url": "https://github.com/jellydn/hurl.nvim"
      },
      "pre_releases": false,
      "version_upper_bound": null,
      "version": "v1.2.1",
      "revision": "60a038c4356aff77c289b8c8096eff5037fc1ca4",
      "url": null,
      "hash": "17cdp6j6p7hvsjl0jz1mlhgk6f0q1xk13pks5vr5mp61wq1ddp36"
    },
    "janet.vim": {
      "type": "Git",
      "repository": {
        "type": "GitHub",
        "owner": "bakpakin",
        "repo": "janet.vim"
      },
      "branch": "master",
      "revision": "e5899fdf8049b4d92c3cd4e95710248f7b48c24b",
      "url": "https://github.com/bakpakin/janet.vim/archive/e5899fdf8049b4d92c3cd4e95710248f7b48c24b.tar.gz",
      "hash": "0630mf7b20fx18ahnycbbswa67vrnglzdpksd72ycnj43ysnig35"
    },
    "nixpkgs": {
      "type": "Channel",
      "name": "nixpkgs-unstable",
      "url": "https://releases.nixos.org/nixpkgs/nixpkgs-24.05pre603928.bb2b73df7bcf/nixexprs.tar.xz",
      "hash": "1m7n4xz2fnl1589kjhrmpb6748arljf0j1kxwz8dqry3bb76pdh2"
    },
    "pisces": {
      "type": "Git",
      "repository": {
        "type": "GitHub",
        "owner": "laughedelic",
        "repo": "pisces"
      },
      "branch": "master",
      "revision": "e45e0869855d089ba1e628b6248434b2dfa709c4",
      "url": "https://github.com/laughedelic/pisces/archive/e45e0869855d089ba1e628b6248434b2dfa709c4.tar.gz",
      "hash": "073wb83qcn0hfkywjcly64k6pf0d7z5nxxwls5sa80jdwchvd2rs"
    },
    "promise-async": {
      "type": "Git",
      "repository": {
        "type": "Git",
        "url": "https://github.com/kevinhwang91/promise-async"
      },
      "branch": "main",
      "revision": "93540c168c5ed2b030ec3e6c40ab8bbb85e36355",
      "url": null,
      "hash": "059icgs1hi7sl1mjgrg468mz2p21ahag5j0wpwmc9by7sf99da5z"
    },
    "telescope-egrepify.nvim": {
      "type": "Git",
      "repository": {
        "type": "GitHub",
        "owner": "fdschmidt93",
        "repo": "telescope-egrepify.nvim"
      },
      "branch": "master",
      "revision": "728dc1b7f31297876c3a3254fc6108108b6a9e9d",
      "url": "https://github.com/fdschmidt93/telescope-egrepify.nvim/archive/728dc1b7f31297876c3a3254fc6108108b6a9e9d.tar.gz",
      "hash": "15wl3rsf8qiifkh7ibbbz04zk1m60dzd0y2r0m6q81fp5f2nsag8"
    },
    "tmux-nvr": {
      "type": "Git",
      "repository": {
        "type": "Git",
        "url": "https://github.com/carlocab/tmux-nvr"
      },
      "branch": "main",
      "revision": "a283fc21e73df5bff01f997525b9d0dbf3eecac9",
      "url": null,
      "hash": "0cflgfk165fw8i7fv7pf1b5d693p9shxp6hl7rh4mhczx0j7s562"
    },
    "vim-terraform": {
      "type": "Git",
      "repository": {
        "type": "GitHub",
        "owner": "hashivim",
        "repo": "vim-terraform"
      },
      "branch": "master",
      "revision": "21f756b933cd11ac5990a6046fdc7c4e2a6c0aee",
      "url": "https://github.com/hashivim/vim-terraform/archive/21f756b933cd11ac5990a6046fdc7c4e2a6c0aee.tar.gz",
      "hash": "1bp6nqsdn9h3ihy5y2na7n40nmjr1vqsjj845ks4kfrzfcsvmxms"
    },
    "vim-varnish": {
      "type": "GitRelease",
      "repository": {
        "type": "GitHub",
        "owner": "varnishcache-friends",
        "repo": "vim-varnish"
      },
      "pre_releases": false,
      "version_upper_bound": null,
      "version": "v0.1.7",
      "revision": "01458458f20831d43045423344bcb70a40d04b0f",
      "url": "https://api.github.com/repos/varnishcache-friends/vim-varnish/tarball/v0.1.7",
      "hash": "1qv8ilq3wgvdnqixdhnpxf29ikvzvpl1wvp1ynpqh7iar23j9l5d"
    },
    "yuck.vim": {
      "type": "Git",
      "repository": {
        "type": "GitHub",
        "owner": "elkowar",
        "repo": "yuck.vim"
      },
      "branch": "master",
      "revision": "9b5e0370f70cc30383e1dabd6c215475915fe5c3",
      "url": "https://github.com/elkowar/yuck.vim/archive/9b5e0370f70cc30383e1dabd6c215475915fe5c3.tar.gz",
      "hash": "1mkf0vd8vvw1njlczlgai80djw1n1a7dl1k940l089d3vvqr5dhp"
    }
  },
  "version": 3
}